<?xml version="1.0" encoding="UTF-8"?>
<svg width="381px" height="381px" viewBox="0 0 381 381" version="1.1" xmlns="http://www.w3.org/2000/svg" xmlns:xlink="http://www.w3.org/1999/xlink">
    <!-- Generator: Sketch 52.5 (67469) - http://www.bohemiancoding.com/sketch -->
    <title>Shape</title>
    <desc>Created with Sketch.</desc>
    <g id="Page-1" stroke="none" stroke-width="1" fill="none" fill-rule="evenodd">
        <path d="M0.693460166,190.188512 C0.693460166,164.488512 -1.10653983,138.688512 1.09346017,113.288512 C5.39346017,62.8885116 32.5934602,28.1885116 78.9934602,8.58851156 C92.7934602,2.78851156 107.49346,0.288511562 122.39346,0.188511562 C145.69346,0.0885115624 169.09346,-0.311488438 192.39346,0.488511562 C227.09346,1.78851156 256.79346,15.1885116 280.09346,41.1885116 C296.79346,59.8885116 306.19346,81.9885116 308.59346,106.988512 C308.99346,110.988512 309.09346,114.988512 309.39346,118.988512 C310.529898,131.793146 320.9525,141.788592 333.79346,142.388512 C339.99346,142.588512 346.09346,142.488512 352.29346,142.488512 C367.29346,142.588512 378.19346,152.088512 380.19346,166.988512 C380.419477,168.310944 380.553133,169.64751 380.59346,170.988512 C380.39346,202.988512 382.09346,235.088512 379.59346,266.888512 C375.79346,317.088512 348.59346,351.788512 302.39346,371.488512 C286.99346,378.088512 270.69346,380.188512 254.09346,380.188512 C211.59346,380.188512 169.09346,380.488512 126.59346,380.088512 C79.0934602,379.688512 42.1934602,359.688512 17.1934602,318.988512 C5.09346017,299.288512 0.293460166,277.588512 0.293460166,254.588512 C0.293460166,231.588512 0.293460166,211.588512 0.293460166,190.088512 L0.693460166,190.188512 Z M190.29346,237.788512 C166.29346,237.788512 142.29346,237.488512 118.29346,237.888512 C110.735878,237.980289 103.692342,241.732214 99.3994801,247.95289 C95.106618,254.173565 94.0978338,262.090048 96.6934602,269.188512 C100.19346,279.188512 108.99346,285.088512 120.79346,285.088512 L259.79346,285.088512 C269.29346,285.088512 277.09346,281.588512 281.99346,273.188512 C286.227433,266.023309 286.336983,257.148455 282.281166,249.880925 C278.225349,242.613395 270.614609,238.047031 262.29346,237.888512 C238.29346,237.488512 214.29346,237.788512 190.29346,237.788512 Z M154.49346,142.388512 C165.99346,142.388512 177.49346,142.588512 188.99346,142.288512 C193.306921,142.212743 197.55986,141.260084 201.49346,139.488512 C211.09346,134.888512 215.89346,123.688512 213.39346,113.388512 C210.89346,103.088512 201.39346,95.0885116 189.09346,94.9885116 C166.29346,94.8551782 143.460127,94.8551782 120.59346,94.9885116 C105.89346,95.0885116 95.0934602,105.388512 95.2934602,118.888512 C95.4934602,132.388512 105.89346,142.188512 120.49346,142.288512 C131.79346,142.488512 143.09346,142.388512 154.49346,142.388512 Z" id="Shape" fill="#FFFFFF" fill-rule="nonzero"></path>
    </g>
</svg>