<?xml version="1.0" encoding="UTF-8"?>
<svg width="24px" height="20px" viewBox="0 0 24 20" version="1.1" xmlns="http://www.w3.org/2000/svg" xmlns:xlink="http://www.w3.org/1999/xlink">
    <!-- Generator: Sketch 52.5 (67469) - http://www.bohemiancoding.com/sketch -->
    <title>twitter icon</title>
    <desc>Created with Sketch.</desc>
    <g id="desktop" stroke="none" stroke-width="1" fill="none" fill-rule="evenodd">
        <g id="interior-blog" transform="translate(-1281.000000, -127.000000)" fill="#000000">
            <g id="Group-2" transform="translate(1151.000000, 127.000000)">
                <g id="twitter-icon" transform="translate(130.000000, 0.000000)">
                    <path d="M23.0107192,0.360901256 C22.0718415,0.925083115 21.0344005,1.33539719 19.9255643,1.55494025 C19.0422863,0.597957713 17.779919,-3.41060513e-13 16.3823432,-3.41060513e-13 C13.7034456,-3.41060513e-13 11.5293686,2.20668913 11.5293686,4.9281473 C11.5293686,5.31469319 11.5710684,5.68935498 11.6544681,6.05025623 C7.61969451,5.84447371 4.04298716,3.8848487 1.64714292,0.899438485 C1.22888108,1.6299977 0.990054834,2.47752144 0.990054834,3.38008732 C0.990054834,5.08889535 1.8467966,6.59755016 3.15023191,7.48135168 C2.35540805,7.45758349 1.6054431,7.23366208 0.949618644,6.86713152 L0.949618644,6.92717748 C0.949618644,9.31588094 2.62329781,11.3086563 4.84602462,11.7596265 C4.43913546,11.8753401 4.00950094,11.9335096 3.5665983,11.9335096 C3.25384965,11.9335096 2.94868278,11.9034866 2.65299314,11.8459426 C3.27090866,13.8030657 5.06273732,15.2285318 7.18753273,15.266686 C5.52648987,16.5889482 3.43202161,17.3770514 1.15811775,17.3770514 C0.766392159,17.3770514 0.379089279,17.3545342 -2.23820962e-13,17.3094997 C2.14817258,18.7055684 4.70133888,19.5218182 7.44215436,19.5218182 C16.372866,19.5218182 21.2549041,12.0135709 21.2549041,5.50046039 C21.2549041,5.28592116 21.2511132,5.07200742 21.2428996,4.86184655 C22.1912546,4.16693963 23.0151419,3.29940056 23.6633846,2.31114409 C22.7940065,2.70269381 21.857656,2.96789681 20.8758148,3.08673778 C21.8785059,2.47752144 22.6480572,1.51178221 23.0107192,0.360901256" id="Twitter"></path>
                </g>
            </g>
        </g>
    </g>
</svg>