<?xml version="1.0" encoding="UTF-8"?>
<svg width="72px" height="72px" viewBox="0 0 72 72" version="1.1" xmlns="http://www.w3.org/2000/svg" xmlns:xlink="http://www.w3.org/1999/xlink">
    <!-- Generator: Sketch 52.5 (67469) - http://www.bohemiancoding.com/sketch -->
    <title>Fill 1</title>
    <desc>Created with Sketch.</desc>
    <g id="Symbols" stroke="none" stroke-width="1" fill="none" fill-rule="evenodd">
        <g id="nav-/-black" transform="translate(-684.000000, -14.000000)" fill="#FFFFFF">
            <g id="nav-positive">
                <g id="Group-3" transform="translate(684.000000, 14.000000)">
                    <path d="M43.0196798,11.5578752 L59.6787032,44.5771283 L68.0079808,36.322431 L43.0196798,11.5578752 Z M3.9924288,36.322431 L12.3217064,44.5771283 L28.9807298,11.5578752 L3.9924288,36.322431 Z M15.1884797,47.4182324 L24.8041539,56.947344 L33.3061682,52.7344004 C34.9932765,51.8988634 37.0071332,51.8988634 38.6942414,52.7344004 L47.1962557,56.947344 L56.8119299,47.4182324 L36.0002048,6.16747854 L15.1884797,47.4182324 Z M50.8223212,58.7441429 L66.4276042,66.4769195 L58.6249627,51.0113663 L50.8223212,58.7441429 Z M13.3754469,51.0113663 L5.57280543,66.4769195 L21.1780884,58.7441429 L13.3754469,51.0113663 Z M27.6709272,59.7879842 L36.0002048,68.0431454 L44.3294824,59.7879842 L36.9738966,56.1438181 C36.364403,55.8418 35.6364748,55.8413361 35.0260449,56.1438181 L27.6709272,59.7879842 Z M36.0002048,72 C35.1065617,72 34.2133868,71.6627233 33.5327388,70.9886337 L24.0448616,61.585711 L6.33490648,70.3609371 C4.96799304,71.0373463 3.38761642,70.7840408 2.30719306,69.7137555 C1.22723783,68.6430063 0.970239375,67.0763164 1.65369609,65.7216423 L10.5086737,48.170726 L1.02032833,38.7673394 C-0.340031412,37.4191603 -0.340031412,35.2257017 1.01986021,33.8775226 L34.6211202,0.577592206 C34.6637192,0.533518905 34.7095951,0.491765252 34.7568753,0.451867316 C34.9038653,0.327998144 35.0658352,0.229645094 35.2371675,0.156344236 C35.4810586,0.0519601021 35.7408658,0 35.9992686,0 L36.0006729,0 C36.2572033,0 36.5146698,0.0505683136 36.7562203,0.153096729 C36.9303613,0.226861517 37.0951399,0.327070285 37.2444705,0.452795175 C37.2917508,0.492693111 37.3366904,0.533982835 37.3792894,0.577592206 L70.9800813,33.8770587 C72.3399729,35.2257017 72.3399729,37.4191603 70.9800813,38.7668754 L61.491736,48.170726 L70.3467135,65.7216423 C71.0301702,67.0763164 70.7731718,68.6434702 69.6927484,69.7137555 C68.6127932,70.7845048 67.0319484,71.0382742 65.6655031,70.3609371 L47.955548,61.585711 L38.4672027,70.9886337 L37.1077792,69.6409186 L38.4672027,70.9886337 C37.7870228,71.6627233 36.8938479,72 36.0002048,72 Z" id="Fill-1"></path>
                </g>
            </g>
        </g>
    </g>
</svg>